…
``` r
flights%>%
  mutate(useful_dep_time = 
           as.integer(dep_time/100) * 60 +
           (dep_time/100 - as.integer(dep_time/100)) * 100)%>%
  mutate(useful_sched_dep_time =
          as.integer(sched_dep_time/100) * 60 +
           (sched_dep_time/100 - as.integer(sched_dep_time/100)) * 100)%>%
  summarise(useful_dep_time, useful_sched_dep_time)
```

    ## # A tibble: 336,776 × 2
    ##    useful_dep_time useful_sched_dep_time
    ##              <dbl>                 <dbl>
    ##  1             317                   315
    ##  2             333                   329
    ##  3             342                   340
    ##  4             344                   345
    ##  5             354                   360
    ##  6             354                   358
    ##  7             355                   360
    ##  8             357                   360
    ##  9             357                   360
    ## 10             358                   360
    ## # … with 336,766 more rows
…
